…
``` r
# Convert industry shares to wide format as suggested by authors in package description.
ADH_local %>%
  mutate(ind = str_glue("t{year}_sh_ind_{ind}")) %>%
  spread(ind, sh_ind_, fill = 0) %>%
  print() -> ADH_local_wide
```

    ## # A tibble: 1,444 x 782
    ##    czone  year t1990_sh_ind_2011 t1990_sh_ind_2015 t1990_sh_ind_2022
    ##    <dbl> <dbl>             <dbl>             <dbl>             <dbl>
    ##  1   100  1990          0.0101             0                0.000433
    ##  2   100  2000          0                  0                0       
    ##  3   200  1990          0.00165            0.00714          0       
    ##  4   200  2000          0                  0                0       
    ##  5   301  1990          0.000581           0                0       
    ##  6   301  2000          0                  0                0       
    ##  7   302  1990          0.0215             0.00341          0       
    ##  8   302  2000          0                  0                0       
    ##  9   401  1990          0.000242           0.00274          0       
    ## 10   401  2000          0                  0                0       
    ## # ... with 1,434 more rows, and 777 more variables: t1990_sh_ind_2023 <dbl>,
    ## #   t1990_sh_ind_2024 <dbl>, t1990_sh_ind_2026 <dbl>, t1990_sh_ind_2032 <dbl>,
    ## #   t1990_sh_ind_2033 <dbl>, t1990_sh_ind_2034 <dbl>, t1990_sh_ind_2035 <dbl>,
    ## #   t1990_sh_ind_2037 <dbl>, t1990_sh_ind_2041 <dbl>, t1990_sh_ind_2043 <dbl>,
    ## #   t1990_sh_ind_2044 <dbl>, t1990_sh_ind_2045 <dbl>, t1990_sh_ind_2046 <dbl>,
    ## #   t1990_sh_ind_2047 <dbl>, t1990_sh_ind_2048 <dbl>, t1990_sh_ind_2051 <dbl>,
    ## #   t1990_sh_ind_2062 <dbl>, t1990_sh_ind_2064 <dbl>, ...
…
# Prepare variables in the local tibble
# This function operates row-wise on dataframes, and element-wise among the outcomes of ps objects. The elements of setdiff(x,y) are those elements in x but not in y. The definition is taken to match the version in the base package.
Z <- setdiff(names(ADH_local_wide), c("czone", "year")) # Funktion, damit Z nur Industry share von 2000

# Prepare variables in the global tibble
G <- "trade_" # Globale Wachstumsrate: Growth imports from China to other rich countries

# Estimate the weight (alpha) and the IV estimates (beta)
bw <- bw(master, y, x, controls, weight, ADH_local_wide, Z, ADH_global, G) 
bw 
```

    ## # A tibble: 780 x 5
    ##     year ind     trade_        alpha    beta
    ##    <dbl> <chr>    <dbl>        <dbl>   <dbl>
    ##  1  1990 2011   1.21    -0.00172      -4.77 
    ##  2  1990 2015   7.46    -0.0134       -1.68 
    ##  3  1990 2022   0.00698 -0.000000516 -18.1  
    ##  4  1990 2023   3.16     0.000186      5.40 
    ##  5  1990 2024   0        0           -19.7  
    ##  6  1990 2026   0.0333   0.00000388   -0.523
    ##  7  1990 2032   0.176   -0.00000234  -71.5  
    ##  8  1990 2033   3.78    -0.00119      -0.342
    ##  9  1990 2034  12.2     -0.00283       0.264
    ## 10  1990 2035   5.11    -0.000261      5.18 
    ## # ... with 770 more rows
…
